NBA Joined Dataset Analysis
…
Pivot_longer was used to return each of the datasets back to their tidy form. For the nba_draft_2015 dataset, the five position columns were moved to a single column called "position", where the position for each player would be displayed. For the NBABIOSTATS dataset, all of the columns that were just player names were moved to a single column called "player". Now both datasets were tidy.

NBAjoin <- nba_draft_2015 %>% inner_join(NBABIOSTATS)
NBAjoin

## # A tibble: 34 x 12
##    player id    projected_spm superstar starter role_player  bust position
##    <chr>  <chr>         <dbl>     <dbl>   <dbl>       <dbl> <dbl> <chr>   
##  1 Quinn… quin…        -0.454  0.000128   0.221       0.365 0.413 PG      
##  2 Justi… just…        -0.636  0.000926   0.157       0.412 0.430 SF      
##  3 Terry… terr…        -0.638  0.00747    0.188       0.300 0.505 PG      
##  4 T.J. … tj-m…        -0.760  0.00267    0.103       0.436 0.459 PG      
##  5 Marcu… marc…         0.997  0.164      0.364       0.142 0.331 PG      
##  6 Gary … gary…         0.299  0.0687     0.334       0.311 0.286 SG      
##  7 Rodne… rodn…        -0.315  0.00240    0.236       0.415 0.347 SG      
##  8 Doug … doug…        -0.593  0.00843    0.171       0.419 0.401 SF      
##  9 Victo… vict…         1.21   0.160      0.429       0.175 0.236 SG      
## 10 Ben M… ben-…         0.324  0.0575     0.405       0.188 0.350 SG      
## # … with 24 more rows, and 4 more variables: draft_year <int>,
## #   college_ft <dbl>, nba_3pt <dbl>, college_3pt <dbl>
…
## # A tibble: 7 x 6
##   player          position draft_year greatness_prob nba_3pt percent3ptchange
##   <chr>           <chr>         <int>          <dbl>   <dbl>            <dbl>
## 1 Jodie Meeks     SG             2009         0.0355   0.373            -3.37
## 2 Wesley Matthews SF             2009         0.0639   0.393            15.2 
## 3 D.J. Augustin   PG             2008         0.185    0.377            -6.22
## 4 Jeff Green      SF             2007         0.368    0.344            -4.18
## 5 Jared Dudley    SF             2007         0.174    0.405            11.0 
## 6 Chris Paul      PG             2005         0.653    0.359           -23.6 
## 7 Kyle Korver     SG             2003         0.211    0.404           -10.8

NBAjoin %>% arrange(percent3ptchange)

## # A tibble: 34 x 14
##    player id    projected_spm superstar starter role_player  bust position
##    <chr>  <chr>         <dbl>     <dbl>   <dbl>       <dbl> <dbl> <chr>   
##  1 Chris… chri…         1.52   0.163     0.490       0.0991 0.248 PG      
##  2 Cory … cory…        -0.173  0.0205    0.260       0.378  0.341 PG      
##  3 Jorda… jord…        -1.07   0.00162   0.0796      0.413  0.506 SG      
##  4 Ben M… ben-…         0.324  0.0575    0.405       0.188  0.350 SG      
##  5 Justi… just…        -0.636  0.000926  0.157       0.412  0.430 SF      
##  6 T.J. … tj-m…        -0.760  0.00267   0.103       0.436  0.459 PG      
##  7 Solom… solo…        -1.09   0         0.0513      0.396  0.553 SF      
##  8 Doug … doug…        -0.593  0.00843   0.171       0.419  0.401 SF      
##  9 Kyle … kyle…        -0.496  0.000904  0.210       0.401  0.388 SG      
## 10 Draym… dray…        -0.557  0.00248   0.170       0.421  0.407 SF      
## # … with 24 more rows, and 6 more variables: draft_year <int>,
## #   college_ft <dbl>, nba_3pt <dbl>, college_3pt <dbl>, greatness_prob <dbl>,
## #   percent3ptchange <dbl>
…
