Predicting Medical School Admissions
…
library(tidyverse)
MedGPA <- read_csv("MedGPA.csv")
MedGPA <- MedGPA %>% rename(Applicant = X1)
MedGPA <- MedGPA[-54, ]
MedGPA

## # A tibble: 54 x 12
##    Applicant Accept Acceptance Sex    BCPM   GPA    VR    PS    WS    BS  MCAT
##        <dbl> <chr>       <dbl> <chr> <dbl> <dbl> <dbl> <dbl> <dbl> <dbl> <dbl>
##  1         1 D               0 F      3.59  3.62    11     9     9     9    38
##  2         2 A               1 M      3.75  3.84    12    13     8    12    45
##  3         3 A               1 F      3.24  3.23     9    10     5     9    33
##  4         4 A               1 F      3.74  3.69    12    11     7    10    40
##  5         5 A               1 F      3.53  3.38     9    11     4    11    35
##  6         6 A               1 M      3.59  3.72    10     9     7    10    36
##  7         7 A               1 M      3.85  3.89    11    12     6    11    40
##  8         8 D               0 M      3.26  3.34    11    11     8     9    39
##  9         9 A               1 F      3.74  3.71     8    10     6    11    35
## 10        10 A               1 F      3.86  3.89     9     9     6    10    34
## # … with 44 more rows, and 1 more variable: Apps <dbl>
…
